<?xml version="1.0" encoding="utf-8"?>
<!-- Generator: Adobe Illustrator 18.1.1, SVG Export Plug-In . SVG Version: 6.00 Build 0)  -->
<svg version="1.1" id="Layer_1" xmlns="http://www.w3.org/2000/svg" xmlns:xlink="http://www.w3.org/1999/xlink" x="0px" y="0px"
	 viewBox="0 0 285.7 89" enable-background="new 0 0 285.7 89" xml:space="preserve">
<g>
	<g>
		<path fill="#3C85B7" d="M11.7,28.6h11c1.8,0,3.3,0.3,4.5,0.8c2.2,1,3.4,2.9,3.4,5.7c0,1.5-0.3,2.6-0.9,3.6
			c-0.6,0.9-1.4,1.7-2.5,2.2c0.9,0.4,1.7,0.9,2.1,1.5s0.7,1.6,0.8,3.1l0.1,3.3c0,0.9,0.1,1.6,0.2,2.1c0.2,0.8,0.6,1.3,1.1,1.5v0.5
			h-4c-0.1-0.2-0.2-0.5-0.3-0.8s-0.1-1-0.2-1.9l-0.2-4.1c-0.1-1.6-0.6-2.7-1.7-3.2c-0.6-0.3-1.6-0.4-2.9-0.4H15v10.4h-3.3V28.6z
			 M22.4,39.7c1.5,0,2.7-0.3,3.6-0.9c0.9-0.6,1.3-1.7,1.3-3.3c0-1.7-0.6-2.9-1.8-3.5c-0.7-0.3-1.5-0.5-2.6-0.5H15v8.3H22.4z"/>
		<path fill="#3C85B7" d="M34.8,28.6h3V32h-3V28.6z M34.8,35.3h3v17.6h-3V35.3z"/>
		<path fill="#3C85B7" d="M52.8,35.9c0.6,0.4,1.1,0.9,1.7,1.7v-2.2h2.7v16.1c0,2.2-0.3,4-1,5.3c-1.2,2.4-3.6,3.6-7,3.6
			c-1.9,0-3.5-0.4-4.8-1.3c-1.3-0.9-2-2.2-2.2-4h3c0.1,0.8,0.4,1.4,0.9,1.8c0.7,0.7,1.7,1,3.2,1c2.3,0,3.8-0.8,4.5-2.4
			c0.4-0.9,0.6-2.6,0.6-5.1c-0.6,0.9-1.3,1.6-2.1,2c-0.8,0.4-1.9,0.7-3.3,0.7c-1.9,0-3.6-0.7-5-2c-1.4-1.4-2.1-3.6-2.1-6.8
			c0-3,0.7-5.3,2.2-6.9c1.4-1.7,3.2-2.5,5.2-2.5C50.5,34.9,51.7,35.2,52.8,35.9z M53.1,39.1c-0.9-1.1-2-1.6-3.4-1.6
			c-2.1,0-3.5,1-4.3,2.9c-0.4,1-0.6,2.4-0.6,4.1c0,2,0.4,3.5,1.2,4.6c0.8,1,1.9,1.6,3.2,1.6c2.1,0,3.6-1,4.5-2.9
			c0.5-1.1,0.7-2.4,0.7-3.8C54.5,41.8,54,40.2,53.1,39.1z"/>
		<path fill="#3C85B7" d="M61.8,28.5h3v9.1c0.7-0.9,1.3-1.5,1.9-1.9c1-0.6,2.2-0.9,3.6-0.9c2.6,0,4.3,0.9,5.2,2.7
			c0.5,1,0.7,2.3,0.7,4.1v11.4h-3.1V41.7c0-1.3-0.2-2.3-0.5-2.9c-0.5-1-1.6-1.5-3-1.5c-1.2,0-2.4,0.4-3.4,1.3
			c-1,0.8-1.5,2.5-1.5,4.8v9.4h-3V28.5z"/>
		<path fill="#3C85B7" d="M81.2,30.3h3v4.9H87v2.4h-2.8v11.6c0,0.6,0.2,1,0.6,1.2c0.2,0.1,0.6,0.2,1.2,0.2c0.1,0,0.3,0,0.5,0
			c0.2,0,0.4,0,0.6-0.1v2.4c-0.3,0.1-0.7,0.2-1.1,0.2c-0.4,0-0.8,0.1-1.2,0.1c-1.4,0-2.3-0.4-2.8-1.1c-0.5-0.7-0.7-1.6-0.7-2.8V37.6
			h-2.4v-2.4h2.4V30.3z"/>
		<path fill="#E77D25" d="M90.7,28.6h17.6v3H93.9V39h13.3v2.8H93.9V50h14.7v2.9H90.7V28.6z"/>
		<path fill="#E77D25" d="M112.7,35.2l4.7,14.4l4.9-14.4h3.3l-6.7,17.7h-3.2l-6.5-17.7H112.7z"/>
		<path fill="#E77D25" d="M139.1,35.7c1.2,0.6,2.1,1.4,2.7,2.3c0.6,0.9,1,1.9,1.2,3.1c0.2,0.8,0.3,2.1,0.3,3.9h-12.9
			c0.1,1.8,0.5,3.2,1.3,4.3c0.8,1.1,2,1.6,3.7,1.6c1.5,0,2.8-0.5,3.7-1.5c0.5-0.6,0.9-1.3,1.1-2.1h2.9c-0.1,0.7-0.3,1.4-0.8,2.2
			c-0.4,0.8-0.9,1.5-1.5,2c-0.9,0.9-2,1.5-3.3,1.8c-0.7,0.2-1.5,0.3-2.4,0.3c-2.2,0-4-0.8-5.6-2.4c-1.5-1.6-2.3-3.8-2.3-6.7
			c0-2.8,0.8-5.2,2.3-6.9c1.5-1.8,3.5-2.7,6-2.7C136.7,34.8,137.9,35.1,139.1,35.7z M140.2,42.6c-0.1-1.3-0.4-2.3-0.8-3.1
			c-0.8-1.4-2.2-2.1-4-2.1c-1.4,0-2.5,0.5-3.4,1.5c-0.9,1-1.4,2.2-1.5,3.8H140.2z"/>
		<path fill="#E77D25" d="M147.1,35.2h2.8v3.1c0.2-0.6,0.8-1.3,1.7-2.2c0.9-0.9,1.9-1.3,3.1-1.3c0.1,0,0.1,0,0.3,0
			c0.1,0,0.4,0,0.7,0.1V38c-0.2,0-0.3-0.1-0.5-0.1c-0.1,0-0.3,0-0.5,0c-1.5,0-2.7,0.5-3.5,1.4c-0.8,1-1.2,2.1-1.2,3.3v10.2h-3V35.2z
			"/>
		<path fill="#E77D25" d="M170.7,35.2h3.3c-0.4,1.1-1.4,3.7-2.8,7.8c-1.1,3-2,5.5-2.7,7.4c-1.7,4.5-2.9,7.3-3.6,8.3
			c-0.7,1-1.9,1.5-3.6,1.5c-0.4,0-0.7,0-1,0c-0.2,0-0.5-0.1-0.8-0.2v-2.7c0.5,0.1,0.9,0.2,1.1,0.3c0.2,0,0.4,0,0.6,0
			c0.6,0,1-0.1,1.2-0.3c0.3-0.2,0.5-0.4,0.7-0.7c0.1-0.1,0.3-0.5,0.6-1.4c0.3-0.8,0.6-1.4,0.7-1.8l-6.5-18.2h3.4l4.7,14.4
			L170.7,35.2z"/>
		<path fill="#E77D25" d="M178.6,35.2l3.4,14l3.5-14h3.3l3.5,13.9l3.6-13.9h3l-5.1,17.7h-3.1L187,39.2l-3.5,13.7h-3.1l-5.1-17.7
			H178.6z"/>
		<path fill="#E77D25" d="M202.3,28.5h3v9.1c0.7-0.9,1.3-1.5,1.9-1.9c1-0.6,2.2-0.9,3.6-0.9c2.6,0,4.3,0.9,5.2,2.7
			c0.5,1,0.7,2.3,0.7,4.1v11.4h-3.1V41.7c0-1.3-0.2-2.3-0.5-2.9c-0.5-1-1.6-1.5-3-1.5c-1.2,0-2.4,0.4-3.4,1.3
			c-1,0.8-1.5,2.5-1.5,4.8v9.4h-3V28.5z"/>
		<path fill="#E77D25" d="M232.1,35.7c1.2,0.6,2.1,1.4,2.7,2.3c0.6,0.9,1,1.9,1.2,3.1c0.2,0.8,0.3,2.1,0.3,3.9h-12.9
			c0.1,1.8,0.5,3.2,1.3,4.3c0.8,1.1,2,1.6,3.7,1.6c1.5,0,2.8-0.5,3.7-1.5c0.5-0.6,0.9-1.3,1.1-2.1h2.9c-0.1,0.7-0.3,1.4-0.8,2.2
			c-0.4,0.8-0.9,1.5-1.5,2c-0.9,0.9-2,1.5-3.3,1.8c-0.7,0.2-1.5,0.3-2.4,0.3c-2.2,0-4-0.8-5.6-2.4c-1.5-1.6-2.3-3.8-2.3-6.7
			c0-2.8,0.8-5.2,2.3-6.9c1.5-1.8,3.5-2.7,6-2.7C229.7,34.8,230.9,35.1,232.1,35.7z M233.2,42.6c-0.1-1.3-0.4-2.3-0.8-3.1
			c-0.8-1.4-2.2-2.1-4-2.1c-1.4,0-2.5,0.5-3.4,1.5c-0.9,1-1.4,2.2-1.5,3.8H233.2z"/>
		<path fill="#E77D25" d="M240.1,35.2h2.8v3.1c0.2-0.6,0.8-1.3,1.7-2.2c0.9-0.9,1.9-1.3,3.1-1.3c0.1,0,0.1,0,0.3,0
			c0.1,0,0.4,0,0.7,0.1V38c-0.2,0-0.3-0.1-0.5-0.1c-0.1,0-0.3,0-0.5,0c-1.5,0-2.7,0.5-3.5,1.4c-0.8,1-1.2,2.1-1.2,3.3v10.2h-3V35.2z
			"/>
		<path fill="#E77D25" d="M262.2,35.7c1.2,0.6,2.1,1.4,2.7,2.3c0.6,0.9,1,1.9,1.2,3.1c0.2,0.8,0.3,2.1,0.3,3.9h-12.9
			c0.1,1.8,0.5,3.2,1.3,4.3c0.8,1.1,2,1.6,3.7,1.6c1.5,0,2.8-0.5,3.7-1.5c0.5-0.6,0.9-1.3,1.1-2.1h2.9c-0.1,0.7-0.3,1.4-0.8,2.2
			c-0.4,0.8-0.9,1.5-1.5,2c-0.9,0.9-2,1.5-3.3,1.8c-0.7,0.2-1.5,0.3-2.4,0.3c-2.2,0-4-0.8-5.6-2.4c-1.5-1.6-2.3-3.8-2.3-6.7
			c0-2.8,0.8-5.2,2.3-6.9c1.5-1.8,3.5-2.7,6-2.7C259.8,34.8,261,35.1,262.2,35.7z M263.3,42.6c-0.1-1.3-0.4-2.3-0.8-3.1
			c-0.8-1.4-2.2-2.1-4-2.1c-1.4,0-2.5,0.5-3.4,1.5c-0.9,1-1.4,2.2-1.5,3.8H263.3z"/>
	</g>
	<g>
		<g>
			<path fill-rule="evenodd" clip-rule="evenodd" fill="#E77D25" d="M270.3,34.8h0.7c0.6,0,1.2,0,1.2-0.7c0-0.6-0.5-0.7-1-0.7h-0.9
				V34.8z M269.6,32.8h1.7c1,0,1.5,0.4,1.5,1.3c0,0.8-0.5,1.1-1.2,1.2l1.3,2h-0.7l-1.2-1.9h-0.7v1.9h-0.7V32.8z M271,38.3
				c1.8,0,3.1-1.4,3.1-3.3c0-1.8-1.4-3.2-3.1-3.2c-1.8,0-3.1,1.4-3.1,3.2C267.9,36.9,269.3,38.3,271,38.3 M271,31.2
				c2.1,0,3.8,1.6,3.8,3.8c0,2.2-1.7,3.8-3.8,3.8c-2.1,0-3.8-1.6-3.8-3.8C267.2,32.9,269,31.2,271,31.2"/>
		</g>
	</g>
</g>
</svg>
